…
```{r}

max_values <- starwars 
```

f\) Найти всех персонажей ниже 170

```{r}
starwars %>% filter(!is.na(height) & height < 170) %>% select(name,height)
```

```{r}
# A tibble: 22 × 2
   name                  height
   <chr>                  <int>
 1 C-3PO                    167
 2 R2-D2                     96
 3 Leia Organa              150
 4 Beru Whitesun Lars       165
 5 R5-D4                     97
 6 Yoda                      66
 7 Mon Mothma               150
 8 Wicket Systri Warrick     88
 9 Nien Nunb                160
10 Watto                    137
# ℹ 12 more rows
```

g\) Подсчитать ИМТ (индекс массы тела) для всех персонажей. ИМТ подсчитать по формуле

```{r}
starwars %>% filter(!is.na(mass) & !is.na(height)) %>% mutate(bmi = mass / (height/100)^2) %>% select(name,bmi)

```

```{r}
# A tibble: 87 × 2
   name                   imt
   <chr>                <dbl>
 1 Luke Skywalker     0.00260
 2 C-3PO              0.00269
 3 R2-D2              0.00347
 4 Darth Vader        0.00333
 5 Leia Organa        0.00218
 6 Owen Lars          0.00379
 7 Beru Whitesun Lars 0.00275
 8 R5-D4              0.00340
 9 Biggs Darklighter  0.00251
10 Obi-Wan Kenobi     0.00232
# ℹ 77 more rows
```
…
```{r}
# A tibble: 1 × 2
  eye_color   sum
  <chr>     <int>
1 brown        21
```

k\) Подсчитать среднюю длину имени в каждой расе вселенной Звездных войн.

```{r}
    starwars %>% filter(!is.na(species) & !is.na(name)) %>% mutate(name_length = nchar(name)) %>% group_by(species) %>% summarise(len = mean(name_length, na.rm = TRUE))
```

```{r}
# A tibble: 37 × 2
   species   `mean(nlen)`
   <chr>            <dbl>
 1 Aleena           12   
 2 Besalisk         15   
 3 Cerean           12   
 4 Chagrian         10   
 5 Clawdite         10   
 6 Droid             4.83
 7 Dug               7   
 8 Ewok             21   
 9 Geonosian        17   
10 Gungan           11.7 
# ℹ 27 more rows
```
…
